<svg id="aktualnosci" xmlns="http://www.w3.org/2000/svg" width="469" height="79" viewBox="0 0 469 79">
  <defs>
    <style>
      .cls-1 {
        fill: #fff;
        font-size: 70px;
        font-family: Arial-BoldMT, Arial;
        font-weight: 700;
      }
    </style>
  </defs>
  <text id="Aktualności" class="cls-1"><tspan x="36.121" y="63">Aktualności</tspan></text>
</svg>
