<svg id="Dropdown_1" data-name="Dropdown 1" xmlns="http://www.w3.org/2000/svg" xmlns:xlink="http://www.w3.org/1999/xlink" width="360" height="50" viewBox="0 0 360 50">
  <defs>
    <style>
      .cls-1 {
        fill: none;
      }

      .cls-2 {
        fill: #fff;
        stroke: #707575;
        stroke-width: 2px;
      }

      .cls-3, .cls-5 {
        fill: #707575;
      }

      .cls-3 {
        font-size: 14px;
        font-family: ArialMT, Arial;
      }

      .cls-4 {
        clip-path: url(#clip-path);
      }

      .cls-6 {
        stroke: none;
      }
    </style>
    <clipPath id="clip-path">
      <rect class="cls-1" width="9.4" height="6.1"/>
    </clipPath>
  </defs>
  <g id="Rectangle_612" data-name="Rectangle 612" class="cls-2">
    <rect class="cls-6" width="360" height="50" rx="10"/>
    <rect class="cls-1" x="1" y="1" width="358" height="48" rx="9"/>
  </g>
  <text id="Lokalizacja" class="cls-3" transform="translate(20 30)"><tspan x="0" y="0">Lokalizacja</tspan></text>
  <g id="Symbol_156_1" data-name="Symbol 156 – 1" class="cls-4" transform="translate(330.35 22)">
    <path id="Path_36" data-name="Path 36" class="cls-5" d="M6.7,8.1,2,3.4,3.4,2,6.7,5.3,10,2l1.4,1.4Z" transform="translate(-2 -2)"/>
  </g>
</svg>
