<svg id="nmk" xmlns="http://www.w3.org/2000/svg" width="224" height="67" viewBox="0 0 224 67">
  <defs>
    <style>
      .cls-1 {
        fill: #647984;
        font-size: 30px;
        font-family: ArialMT, Arial;
      }
    </style>
  </defs>
  <text id="Nie_masz_konta_" data-name="Nie masz konta?
" class="cls-1" transform="translate(0 27)"><tspan x="0" y="0">Nie masz konta?</tspan><tspan x="0" y="34"></tspan></text>
</svg>
