<svg id="wybTur" xmlns="http://www.w3.org/2000/svg" width="243" height="40" viewBox="0 0 243 40">
  <defs>
    <style>
      .cls-1 {
        fill: #707575;
        font-size: 35px;
        font-family: ArialMT, Arial;
      }
    </style>
  </defs>
  <text id="Wybierz_turnus:" data-name="Wybierz turnus:" class="cls-1" transform="translate(0 32)"><tspan x="0" y="0">Wybierz turnus:</tspan></text>
</svg>
